5838_楽天銀行
…
── Attaching core tidyverse packages ──────────────────────── tidyverse 2.0.0 ──
✔ forcats   1.0.1     ✔ readr     2.1.5
✔ ggplot2   4.0.0     ✔ stringr   1.5.2
✔ lubridate 1.9.4     ✔ tibble    3.3.0
✔ purrr     1.1.0     ✔ tidyr     1.3.1

## 楽天銀行財務データ読み込み
df <- read_csv("Processed_PrimeBank/5838.csv", show_col_types = FALSE)
# TOPIX年次リターンデータの読み込み
TOPIX <- read_csv("^tpx_y.csv", show_col_types = FALSE)

print(df)

# A tibble: 532 × 3
   項目                   金額          年度
   <chr>                  <chr>        <dbl>
 1 企業名                 Rakuten Bank  2025
 2 現金預け金             4791097       2024
 3 コールローン           6387          2024
 4 債券貸借取引支払保証金 554524        2024
 5 買入金銭債権           2550812       2024
 6 有価証券               1090506       2024
 7 貸出金                 4069567       2024
 8 外国為替               25501         2024
 9 その他資産             345415        2024
10 有形固定資産           4336          2024
# ℹ 522 more rows

print(TOPIX)

# A tibble: 57 × 6
   Date        Open  High   Low Close Volume
   <date>     <dbl> <dbl> <dbl> <dbl>  <dbl>
 1 1969-12-31  133.  179.  133.  179.      0
 2 1970-12-31  183.  186.  147.  148.      0
 3 1971-12-31  149.  209   148.  199.      0
 4 1972-12-31  200.  402.  200.  402.      0
 5 1973-12-31  404.  422.  285.  306.      0
 6 1974-12-31  304.  342.  252.  278.      0
 7 1975-12-31  276.  333.  268.  323.      0
 8 1976-12-31  326.  384.  326.  384.      0
 9 1977-12-31  384.  391.  350.  364.      0
10 1978-12-31  364.  453.  364.  450.      0
# ℹ 47 more rows
…
