8334_群馬銀行
…
── Attaching core tidyverse packages ──────────────────────── tidyverse 2.0.0 ──
✔ forcats   1.0.1     ✔ readr     2.1.5
✔ ggplot2   4.0.0     ✔ stringr   1.5.2
✔ lubridate 1.9.4     ✔ tibble    3.3.0
✔ purrr     1.1.0     ✔ tidyr     1.3.1

## 群馬銀行財務データ読み込み
df <- read_csv("Processed_PrimeBank/8334.csv", show_col_types = FALSE)
# TOPIX年次リターンデータの読み込み
TOPIX <- read_csv("^tpx_y.csv", show_col_types = FALSE)

print(df)

# A tibble: 1,653 × 3
   項目                         金額            年度
   <chr>                        <chr>          <dbl>
 1 企業名                       The Gunma Bank  2025
 2 現金預け金                   1844728         2024
 3 商品有価証券                 268             2024
 4 金銭の信託                   12251           2024
 5 有価証券                     2290971         2024
 6 貸出金                       6406055         2024
 7 外国為替                     8445            2024
 8 リース債権及びリース投資資産 63506           2024
 9 その他資産                   109746          2024
10 有形固定資産                 64772           2024
# ℹ 1,643 more rows

print(TOPIX)

# A tibble: 57 × 6
   Date        Open  High   Low Close Volume
   <date>     <dbl> <dbl> <dbl> <dbl>  <dbl>
 1 1969-12-31  133.  179.  133.  179.      0
 2 1970-12-31  183.  186.  147.  148.      0
 3 1971-12-31  149.  209   148.  199.      0
 4 1972-12-31  200.  402.  200.  402.      0
 5 1973-12-31  404.  422.  285.  306.      0
 6 1974-12-31  304.  342.  252.  278.      0
 7 1975-12-31  276.  333.  268.  323.      0
 8 1976-12-31  326.  384.  326.  384.      0
 9 1977-12-31  384.  391.  350.  364.      0
10 1978-12-31  364.  453.  364.  450.      0
# ℹ 47 more rows
…
