8349_東北銀行
…
##じもとホールディングス
## 財務データ読み込み
df <- read_csv("ProcessedBankData/7161_processed_data.csv", show_col_types = FALSE)
# TOPIX年次リターンデータの読み込み
TOPIX <- read_csv("^tpx_y.csv", show_col_types = FALSE)

print(df)

# A tibble: 1,437 × 4
      No 項目         `金額（百万円）` ファイル名        
   <dbl> <chr>                   <dbl> <chr>             
 1     1 現金預け金             159638 716120150311JP.csv
 2     2 買入金銭債権              838 716120150311JP.csv
 3     3 商品有価証券               26 716120150311JP.csv
 4     4 有価証券               752854 716120150311JP.csv
 5     5 貸出金                1600381 716120150311JP.csv
 6     6 外国為替                  548 716120150311JP.csv
 7     7 その他資産               6639 716120150311JP.csv
 8     8 有形固定資産            24899 716120150311JP.csv
 9     9 建物                     7907 716120150311JP.csv
10    10 土地                    14406 716120150311JP.csv
# ℹ 1,427 more rows

print(TOPIX)

# A tibble: 57 × 6
   Date        Open  High   Low Close Volume
   <date>     <dbl> <dbl> <dbl> <dbl>  <dbl>
 1 1969-12-31  133.  179.  133.  179.      0
 2 1970-12-31  183.  186.  147.  148.      0
 3 1971-12-31  149.  209   148.  199.      0
 4 1972-12-31  200.  402.  200.  402.      0
 5 1973-12-31  404.  422.  285.  306.      0
 6 1974-12-31  304.  342.  252.  278.      0
 7 1975-12-31  276.  333.  268.  323.      0
 8 1976-12-31  326.  384.  326.  384.      0
 9 1977-12-31  384.  391.  350.  364.      0
10 1978-12-31  364.  453.  364.  450.      0
# ℹ 47 more rows
…
