Valuation
…
##じもとホールディングス
## 財務データ読み込み
df <- read_csv("ProcessedBankData/8563_processed_data.csv", show_col_types = FALSE)
# TOPIX年次リターンデータの読み込み
TOPIX <- read_csv("^tpx_y.csv", show_col_types = FALSE)

print(df)

# A tibble: 1,296 × 4
      No 項目                         `金額（百万円）` ファイル名        
   <dbl> <chr>                                   <dbl> <chr>             
 1     1 現金預け金                              70944 856320150311JP.csv
 2     2 コールローン及び買入手形                 5000 856320150311JP.csv
 3     3 有価証券                               234701 856320150311JP.csv
 4     4 貸出金                                 472194 856320150311JP.csv
 5     5 外国為替                                  337 856320150311JP.csv
 6     6 リース債権及びリース投資資産             1995 856320150311JP.csv
 7     7 その他資産                               3291 856320150311JP.csv
 8     8 有形固定資産                            12932 856320150311JP.csv
 9     9 建物                                     2297 856320150311JP.csv
10    10 土地                                     9646 856320150311JP.csv
# ℹ 1,286 more rows

print(TOPIX)

# A tibble: 57 × 6
   Date        Open  High   Low Close Volume
   <date>     <dbl> <dbl> <dbl> <dbl>  <dbl>
 1 1969-12-31  133.  179.  133.  179.      0
 2 1970-12-31  183.  186.  147.  148.      0
 3 1971-12-31  149.  209   148.  199.      0
 4 1972-12-31  200.  402.  200.  402.      0
 5 1973-12-31  404.  422.  285.  306.      0
 6 1974-12-31  304.  342.  252.  278.      0
 7 1975-12-31  276.  333.  268.  323.      0
 8 1976-12-31  326.  384.  326.  384.      0
 9 1977-12-31  384.  391.  350.  364.      0
10 1978-12-31  364.  453.  364.  450.      0
# ℹ 47 more rows
…
